{
    "AFFILIATE_COOKIE_NAME": "dev_affiliate_id", 
    "ALTERNATE_WORKER_QUEUES": "cms", 
    "ANALYTICS_DASHBOARD_URL": "http://tpxventures.com:18110/courses", 
    "ANALYTICS_DATA_URL": "", 
    "ANALYTICS_SERVER_URL": "", 
    "API_ACCESS_FROM_EMAIL": "api-requests@example.com", 
    "API_ACCESS_MANAGER_EMAIL": "api-access@example.com", 
    "API_DOCUMENTATION_URL": "http://course-catalog-api-guide.readthedocs.io/en/latest/", 
    "AUDIT_CERT_CUTOFF_DATE": null, 
    "AUTH_DOCUMENTATION_URL": "http://course-catalog-api-guide.readthedocs.io/en/latest/authentication/index.html", 
    "AWS_SES_REGION_ENDPOINT": "email.us-east-1.amazonaws.com", 
    "AWS_SES_REGION_NAME": "us-east-1", 
    "BOOK_URL": "", 
    "BUGS_EMAIL": "bugs@example.com", 
    "BULK_EMAIL_DEFAULT_FROM_EMAIL": "no-reply@example.com", 
    "BULK_EMAIL_EMAILS_PER_TASK": 500, 
    "BULK_EMAIL_LOG_SENT_EMAILS": false, 
    "CACHES": {
        "celery": {
            "BACKEND": "django.core.cache.backends.memcached.MemcachedCache", 
            "KEY_FUNCTION": "util.memcache.safe_key", 
            "KEY_PREFIX": "celery", 
            "LOCATION": [
                "localhost:11211"
            ], 
            "TIMEOUT": "7200"
        }, 
        "configuration": {
            "BACKEND": "django.core.cache.backends.memcached.MemcachedCache", 
            "KEY_FUNCTION": "util.memcache.safe_key", 
            "KEY_PREFIX": "ubuntu-cbiti-tni", 
            "LOCATION": [
                "localhost:11211"
            ]
        }, 
        "course_structure_cache": {
            "BACKEND": "django.core.cache.backends.memcached.MemcachedCache", 
            "KEY_FUNCTION": "util.memcache.safe_key", 
            "KEY_PREFIX": "course_structure", 
            "LOCATION": [
                "localhost:11211"
            ], 
            "TIMEOUT": "7200"
        }, 
        "default": {
            "BACKEND": "django.core.cache.backends.memcached.MemcachedCache", 
            "KEY_FUNCTION": "util.memcache.safe_key", 
            "KEY_PREFIX": "default", 
            "LOCATION": [
                "localhost:11211"
            ], 
            "VERSION": "1"
        }, 
        "general": {
            "BACKEND": "django.core.cache.backends.memcached.MemcachedCache", 
            "KEY_FUNCTION": "util.memcache.safe_key", 
            "KEY_PREFIX": "general", 
            "LOCATION": [
                "localhost:11211"
            ]
        }, 
        "mongo_metadata_inheritance": {
            "BACKEND": "django.core.cache.backends.memcached.MemcachedCache", 
            "KEY_FUNCTION": "util.memcache.safe_key", 
            "KEY_PREFIX": "mongo_metadata_inheritance", 
            "LOCATION": [
                "localhost:11211"
            ], 
            "TIMEOUT": 300
        }, 
        "staticfiles": {
            "BACKEND": "django.core.cache.backends.memcached.MemcachedCache", 
            "KEY_FUNCTION": "util.memcache.safe_key", 
            "KEY_PREFIX": "ubuntu-cbiti-tni_general", 
            "LOCATION": [
                "localhost:11211"
            ]
        }
    }, 
    "CAS_ATTRIBUTE_CALLBACK": "", 
    "CAS_EXTRA_LOGIN_PARAMS": "", 
    "CAS_SERVER_URL": "", 
    "CDN_VIDEO_URLS": {}, 
    "CELERY_BROKER_HOSTNAME": "localhost", 
    "CELERY_BROKER_TRANSPORT": "amqp", 
    "CELERY_BROKER_USE_SSL": false, 
    "CELERY_BROKER_VHOST": "", 
    "CELERY_QUEUES": [
        "edx.lms.core.low", 
        "edx.lms.core.default", 
        "edx.lms.core.high", 
        "edx.lms.core.high_mem"
    ], 
    "CERT_QUEUE": "certificates", 
    "CMS_BASE": "tpxventures:18010", 
    "CODE_JAIL": {
        "limits": {
            "CPU": 1, 
            "FSIZE": 1048576, 
            "PROXY": 0, 
            "REALTIME": 3, 
            "VMEM": 536870912
        }, 
        "python_bin": "/edx/app/edxapp/venvs/edxapp-sandbox/bin/python", 
        "user": "sandbox"
    }, 
    "COMMENTS_SERVICE_KEY": "password", 
    "COMMENTS_SERVICE_URL": "http://localhost:18080", 
    "COMPREHENSIVE_THEME_DIR": "", 
    "COMPREHENSIVE_THEME_DIRS": [
        ""
    ], 
    "COMPREHENSIVE_THEME_LOCALE_PATHS": [], 
    "CONTACT_EMAIL": "info@example.com", 
    "CONTACT_MAILING_ADDRESS": "SET-ME-PLEASE", 
    "CORS_ORIGIN_ALLOW_ALL": false, 
    "CORS_ORIGIN_WHITELIST": [], 
    "COURSES_WITH_UNSAFE_CODE": [], 
    "COURSE_CATALOG_API_URL": "http://localhost:8008/api/v1", 
    "CREDIT_HELP_LINK_URL": "", 
    "CROSS_DOMAIN_CSRF_COOKIE_DOMAIN": "", 
    "CROSS_DOMAIN_CSRF_COOKIE_NAME": "", 
    "CSRF_COOKIE_SECURE": false, 
    "DEFAULT_FEEDBACK_EMAIL": "feedback@example.com", 
    "DEFAULT_FILE_STORAGE": "django.core.files.storage.FileSystemStorage", 
    "DEFAULT_FROM_EMAIL": "registration@example.com", 
    "DEFAULT_SITE_THEME": "", 
    "DEPRECATED_ADVANCED_COMPONENT_TYPES": [], 
    "DOC_LINK_BASE_URL": "https://edx.readthedocs.io/projects/open-edx-learner-guide", 
    "ECOMMERCE_API_URL": "http://localhost:8002/api/v2", 
    "ECOMMERCE_PUBLIC_URL_ROOT": "http://localhost:8002", 
    "EDXMKTG_USER_INFO_COOKIE_NAME": "edx-user-info", 
    "EDXNOTES_INTERNAL_API": "http://localhost:18120/api/v1", 
    "EDXNOTES_PUBLIC_API": "http://localhost:18120/api/v1", 
    "ELASTIC_SEARCH_CONFIG": [
        {
            "host": "localhost", 
            "port": 9200
        }
    ], 
    "EMAIL_BACKEND": "django.core.mail.backends.smtp.EmailBackend", 
    "EMAIL_HOST": "localhost", 
    "EMAIL_PORT": 25, 
    "EMAIL_USE_TLS": false, 
    "ENABLE_COMPREHENSIVE_THEMING": false, 
    "FEATURES": {
        "USE_MICROSITES": true,
        "AUTH_USE_OPENID_PROVIDER": true, 
        "AUTOMATIC_AUTH_FOR_TESTING": false, 
        "CUSTOM_COURSES_EDX": false, 
        "ENABLE_COMBINED_LOGIN_REGISTRATION": true, 
        "ENABLE_CORS_HEADERS": false, 
        "ENABLE_COUNTRY_ACCESS": false, 
        "ENABLE_CREDIT_API": false, 
        "ENABLE_CREDIT_ELIGIBILITY": false, 
        "ENABLE_CROSS_DOMAIN_CSRF_COOKIE": false, 
        "ENABLE_CSMH_EXTENDED": true, 
        "ENABLE_DISCUSSION_HOME_PANEL": true, 
        "ENABLE_DISCUSSION_SERVICE": true, 
        "ENABLE_EDXNOTES": false, 
        "ENABLE_GRADE_DOWNLOADS": true, 
        "ENABLE_INSTRUCTOR_ANALYTICS": false, 
        "ENABLE_MKTG_SITE": false, 
        "ENABLE_MOBILE_REST_API": false, 
        "ENABLE_OAUTH2_PROVIDER": false, 
        "ENABLE_ONLOAD_BEACON": false, 
        "ENABLE_READING_FROM_MULTIPLE_HISTORY_TABLES": true, 
        "ENABLE_SPECIAL_EXAMS": true, 
        "ENABLE_SYSADMIN_DASHBOARD": false, 
        "ENABLE_THIRD_PARTY_AUTH": false, 
        "ENABLE_VIDEO_BEACON": false, 
        "ENABLE_VIDEO_UPLOAD_PIPELINE": false, 
        "PREVIEW_LMS_BASE": "preview.localhost:80", 
        "USE_CUSTOM_THEME": false
    }, 
    "FEEDBACK_SUBMISSION_EMAIL": "", 
    "FILE_UPLOAD_STORAGE_BUCKET_NAME": "SET-ME-PLEASE (ex. bucket-name)", 
    "FILE_UPLOAD_STORAGE_PREFIX": "submissions_attachments", 
    "FINANCIAL_REPORTS": {
        "BUCKET": null, 
        "ROOT_PATH": "sandbox", 
        "STORAGE_TYPE": "localfs"
    }, 
    "FOOTER_ORGANIZATION_IMAGE": "images/logo.png", 
    "GITHUB_REPO_ROOT": "/edx/var/edxapp/data", 
    "GIT_REPO_DIR": "/edx/var/edxapp/course_repos", 
    "GRADES_DOWNLOAD": {
        "BUCKET": "", 
        "ROOT_PATH": "", 
        "STORAGE_CLASS": "django.core.files.storage.FileSystemStorage", 
        "STORAGE_KWARGS": {
            "location": "/tmp/edx-s3/grades"
        }, 
        "STORAGE_TYPE": ""
    }, 
    "JWT_AUTH": {
        "JWT_AUDIENCE": "lms-key", 
        "JWT_ISSUER": "https://localhost:80/oauth2", 
        "JWT_SECRET_KEY": "lms-secret"
    }, 
    "JWT_EXPIRATION": 30, 
    "JWT_ISSUER": "https://localhost:80/oauth2", 
    "LANGUAGE_CODE": "id", 
    "LMS_BASE": "localhost:80", 
    "LMS_ROOT_URL": "https://localhost:80", 
    "LOCAL_LOGLEVEL": "INFO", 
    "LOGGING_ENV": "sandbox", 
    "LOG_DIR": "/edx/var/logs/edx", 
    "LTI_AGGREGATE_SCORE_PASSBACK_DELAY": 900, 
    "LTI_USER_EMAIL_DOMAIN": "lti.example.com", 
    "MAILCHIMP_NEW_USER_LIST_ID": null, 
    "MEDIA_ROOT": "/edx/var/edxapp/media/", 
    "MEDIA_URL": "/media/", 
    "MICROSITE_CONFIGURATION": {
      "sepapk": {
        "domain_prefix": "sepapk",
        "university": "sepapk",
        "platform_name": "SEPAPK",
        "category": "pk",
        "logo_image_url":  "sepapk/images/header-logo.png",
        "ENABLE_MKTG_SITE":  false,
        "SITE_NAME": "sepapk.tpxventures.com",
        "course_org_filter": "SepapK",
        "css_overrides_file":  "sepapk/css/style.css"
      },
      "diklapa1": {
        "domain_prefix": "diklapa1",
        "university": "diklapa1",
        "platform_name": "DIKLAPA I",
        "category": "reg",
        "logo_image_url":  "diklapa1/images/header-logo.png",
        "ENABLE_MKTG_SITE":  false,
        "SITE_NAME": "diklapa1.tpxventures.com",
        "course_org_filter": "Diklapa1",
        "css_overrides_file":  "diklapa1/css/style.css"
      },
      "seskoad": {
        "domain_prefix": "seskoad",
        "university": "seskoad",
        "platform_name": "SESKOAD",
        "category": "reg",
        "logo_image_url":  "seskoad/images/header-logo.png",
        "ENABLE_MKTG_SITE":  false,
        "SITE_NAME": "seskoad.tpxventures.com",
        "course_org_filter": "seskoad",
        "css_overrides_file":  "seskoad/css/style.css"
      }
    }, 
    "MICROSITE_ROOT_DIR": "/edx/app/edxapp/edx-microsite", 
    "MKTG_URLS": {}, 
    "MKTG_URL_LINK_MAP": {}, 
    "MOBILE_STORE_URLS": {}, 
    "OAUTH_ENFORCE_SECURE": true, 
    "OAUTH_EXPIRE_CONFIDENTIAL_CLIENT_DAYS": 365, 
    "OAUTH_EXPIRE_PUBLIC_CLIENT_DAYS": 30, 
    "OAUTH_OIDC_ISSUER": "https://localhost:80/oauth2", 
    "ONLOAD_BEACON_SAMPLE_RATE": 0.0, 
    "ORA2_FILE_PREFIX": "default_env-default_deployment/ora2", 
    "PAID_COURSE_REGISTRATION_CURRENCY": [
        "usd", 
        "$"
    ], 
    "PARTNER_SUPPORT_EMAIL": "", 
    "PAYMENT_SUPPORT_EMAIL": "billing@example.com", 
    "PDF_RECEIPT_BILLING_ADDRESS": "Enter your receipt billing\naddress here.\n", 
    "PDF_RECEIPT_COBRAND_LOGO_PATH": "", 
    "PDF_RECEIPT_DISCLAIMER_TEXT": "ENTER YOUR RECEIPT DISCLAIMER TEXT HERE.\n", 
    "PDF_RECEIPT_FOOTER_TEXT": "Enter your receipt footer text here.\n", 
    "PDF_RECEIPT_LOGO_PATH": "", 
    "PDF_RECEIPT_TAX_ID": "00-0000000", 
    "PDF_RECEIPT_TAX_ID_LABEL": "fake Tax ID", 
    "PDF_RECEIPT_TERMS_AND_CONDITIONS": "Enter your receipt terms and conditions here.\n", 
    "PERFORMANCE_GRAPHITE_URL": "SetPerformanceGraphiteHostName", 
    "PLATFORM_FACEBOOK_ACCOUNT": "http://www.facebook.com/YourPlatformFacebookAccount", 
    "PLATFORM_NAME": "Your Platform Name Here", 
    "PLATFORM_TWITTER_ACCOUNT": "@YourPlatformTwitterAccount", 
    "PRESS_EMAIL": "press@example.com", 
    "PROCTORING_SETTINGS": {}, 
    "PROFILE_IMAGE_BACKEND": {
        "class": "storages.backends.overwrite.OverwriteStorage", 
        "options": {
            "base_url": "/media/profile-images/", 
            "location": "/edx/var/edxapp/media/profile-images/"
        }
    }, 
    "PROFILE_IMAGE_MAX_BYTES": 1048576, 
    "PROFILE_IMAGE_MIN_BYTES": 100, 
    "RECALCULATE_GRADES_ROUTING_KEY": "edx.lms.core.default", 
    "REGISTRATION_EXTRA_FIELDS": {
        "pangkat": "required",
        "korp": "required",
        "jabatan": "required",
        "city": "hidden", 
        "country": "hidden", 
        "gender": "optional", 
        "goals": "optional", 
        "honor_code": "hidden", 
        "level_of_education": "hidden", 
        "mailing_address": "hidden", 
        "year_of_birth": "hidden",
        "satminkal": "required",
        "kotama": "required"
    }, 
    "SERVER_EMAIL": "devops@example.com", 
    "SESSION_COOKIE_DOMAIN": "", 
    "SESSION_COOKIE_NAME": "sessionid", 
    "SESSION_COOKIE_SECURE": false, 
    "SESSION_SAVE_EVERY_REQUEST": false, 
    "SITE_NAME": "tpxventures.com", 
    "SOCIAL_MEDIA_FOOTER_URLS": {}, 
    "SOCIAL_SHARING_SETTINGS": {
        "CERTIFICATE_FACEBOOK": false, 
        "CERTIFICATE_TWITTER": false, 
        "CUSTOM_COURSE_URLS": false, 
        "DASHBOARD_FACEBOOK": false, 
        "DASHBOARD_TWITTER": false
    }, 
    "STATIC_ROOT_BASE": "/edx/var/edxapp/staticfiles", 
    "STATIC_URL_BASE": "/static/", 
    "STUDIO_NAME": "Studio", 
    "STUDIO_SHORT_NAME": "Studio", 
    "SUPPORT_SITE_LINK": "", 
    "SYSLOG_SERVER": "", 
    "TECH_SUPPORT_EMAIL": "technical@example.com", 
    "THEME_NAME": "", 
    "TIME_ZONE": "Asia/Jakarta", 
    "UNIVERSITY_EMAIL": "university@example.com", 
    "VIDEO_CDN_URL": {
        "EXAMPLE_COUNTRY_CODE": "http://example.com/edx/video?s3_url="
    }, 
    "VIDEO_UPLOAD_PIPELINE": {
        "BUCKET": "", 
        "ROOT_PATH": ""
    }, 
    "VIRTUAL_UNIVERSITIES": [], 
    "WIKI_ENABLED": true, 
    "XBLOCK_FS_STORAGE_BUCKET": null, 
    "XBLOCK_FS_STORAGE_PREFIX": null, 
    "XBLOCK_SETTINGS": {}, 
    "ZENDESK_CUSTOM_FIELDS": {}, 
    "ZENDESK_URL": ""
}
